p8105_hw3_jh4054
…
2002
24.04
4.49

2006
22.53
4.00

2010
22.70
3.57

ungroup(brfss)

## # A tibble: 10,625 x 5
##     year state location               response  proportion
##    <int> <chr> <chr>                  <fct>          <dbl>
##  1  2002 AK    Anchorage Municipality Excellent       27.9
##  2  2002 AK    Anchorage Municipality Very good       33.7
##  3  2002 AK    Anchorage Municipality Good            23.8
##  4  2002 AK    Anchorage Municipality Fair             8.6
##  5  2002 AK    Anchorage Municipality Poor             5.9
##  6  2002 AL    Jefferson County       Excellent       18.5
##  7  2002 AL    Jefferson County       Very good       30.9
##  8  2002 AL    Jefferson County       Good            32.7
##  9  2002 AL    Jefferson County       Fair            12.1
## 10  2002 AL    Jefferson County       Poor             5.9
## # ... with 10,615 more rows
…
